Split or count the data according to certain factors — split_by • edibble
…
#>       <U(90)>
#>  1 mainplot03
#>  2 mainplot08
#>  3 mainplot12
#>  4 mainplot25
#>  5 mainplot28
#>  6 mainplot33
#>  7 mainplot35
#>  8 mainplot44
#>  9 mainplot49
#> 10 mainplot82
#> 
spd %>% split_by(trt2)
#> $trt21
#> # A tibble: 90 × 2
#>       subplot   mainplot
#>      <U(450)>    <U(90)>
#>  1 subplot004 mainplot01
#>  2 subplot008 mainplot02
#>  3 subplot014 mainplot03
#>  4 subplot020 mainplot04
#>  5 subplot022 mainplot05
#>  6 subplot029 mainplot06
#>  7 subplot031 mainplot07
#>  8 subplot037 mainplot08
#>  9 subplot043 mainplot09
#> 10 subplot046 mainplot10
#> # ℹ 80 more rows
#> 
#> $trt22
#> # A tibble: 90 × 2
#>       subplot   mainplot
#>      <U(450)>    <U(90)>
#>  1 subplot002 mainplot01
#>  2 subplot006 mainplot02
#>  3 subplot011 mainplot03
#>  4 subplot016 mainplot04
#>  5 subplot024 mainplot05
#>  6 subplot026 mainplot06
#>  7 subplot033 mainplot07
#>  8 subplot040 mainplot08
#>  9 subplot044 mainplot09
#> 10 subplot047 mainplot10
#> # ℹ 80 more rows
#> 
#> $trt23
#> # A tibble: 90 × 2
#>       subplot   mainplot
#>      <U(450)>    <U(90)>
#>  1 subplot005 mainplot01
#>  2 subplot009 mainplot02
#>  3 subplot013 mainplot03
#>  4 subplot017 mainplot04
#>  5 subplot023 mainplot05
#>  6 subplot030 mainplot06
#>  7 subplot032 mainplot07
#>  8 subplot039 mainplot08
#>  9 subplot042 mainplot09
#> 10 subplot050 mainplot10
#> # ℹ 80 more rows
#> 
#> $trt24
#> # A tibble: 90 × 2
#>       subplot   mainplot
#>      <U(450)>    <U(90)>
#>  1 subplot001 mainplot01
#>  2 subplot007 mainplot02
#>  3 subplot012 mainplot03
#>  4 subplot018 mainplot04
#>  5 subplot025 mainplot05
#>  6 subplot028 mainplot06
#>  7 subplot034 mainplot07
#>  8 subplot036 mainplot08
#>  9 subplot045 mainplot09
#> 10 subplot048 mainplot10
#> # ℹ 80 more rows
#> 
#> $trt25
#> # A tibble: 90 × 2
#>       subplot   mainplot
#>      <U(450)>    <U(90)>
#>  1 subplot003 mainplot01
#>  2 subplot010 mainplot02
#>  3 subplot015 mainplot03
#>  4 subplot019 mainplot04
#>  5 subplot021 mainplot05
#>  6 subplot027 mainplot06
#>  7 subplot035 mainplot07
#>  8 subplot038 mainplot08
#>  9 subplot041 mainplot09
#> 10 subplot049 mainplot10
#> # ℹ 80 more rows
…
